{
  "HEADING": "Suggest",
  "NEWUSR": "New User",
  "RECHEAD": "Recommended For You",
  "PREVHEAD": "Your Previous Ratings",
  "SUBMIT": "Submit",
  "ENTUSER": "Enter your User ID",
  "TGENRE": "Your Top Genres",
  "SHOWCRE": "Create User",
  "DIFFMOVIE": "Get Different Movies",
  "NEWUSR": "New User",
  "GETSTRT": "Get started, rate some movies"
}
